{
  "options": {
    "paths": {
      "fonts": "fonts",
      "styles": "styles"
    }
  },
  "styles": {
    "osm-bright": {
      "style": "osm-bright/style.json",
      "tilejson": {
        "type": "overlay",
        "bounds": [-85.106,19.253,-73.708,23.472],
	"center":[-76.6992,20.3965,9.5]
      }
    },
    "klokantech-basic": {
      "style": "klokantech-basic/style.json",
      "tilejson": {
        "type": "overlay",
        "bounds": [-85.106,19.253,-73.708,23.472],
        "center":[-76.6992,20.3965,9.5]
      }
    }
  },
  "data": {
    "openmaptiles": {
      "mbtiles": "final.mbtiles"
    }
  }
}
